module github.com/NVIDIA/gpu-operator

go 1.19

require (
	github.com/NVIDIA/k8s-operator-libs v0.0.0-20230118182127-8e73980389ca
	github.com/go-logr/logr v1.2.3
	github.com/mitchellh/hashstructure v1.1.0
	github.com/openshift/api v0.0.0-20210924154557-a4f696157341
	github.com/openshift/client-go v0.0.0-20210916133943-9acee1a0fb83
	github.com/prometheus-operator/prometheus-operator/pkg/apis/monitoring v0.56.3
	github.com/prometheus/client_golang v1.13.0
	github.com/sirupsen/logrus v1.8.1
	github.com/stretchr/testify v1.8.1
	github.com/urfave/cli/v2 v2.3.0
	gitlab.com/nvidia/cloud-native/go-nvlib v0.0.0-20220525163429-038b3f8b475d
	golang.org/x/mod v0.6.0-dev.0.20220419223038-86c51ed26bb4
	k8s.io/api v0.25.3
	k8s.io/apiextensions-apiserver v0.25.0
	k8s.io/apimachinery v0.25.3
	k8s.io/client-go v0.25.3
	sigs.k8s.io/controller-runtime v0.13.1
)

require (
	cloud.google.com/go v0.97.0 // indirect
	github.com/Azure/go-ansiterm v0.0.0-20210617225240-d185dfc1b5a1 // indirect
	github.com/Azure/go-autorest v14.2.1-0.20211214020533-2e1acb24564e+incompatible // indirect
	github.com/Azure/go-autorest/autorest v0.11.27 // indirect
	github.com/Azure/go-autorest/autorest/adal v0.9.20 // indirect
	github.com/Azure/go-autorest/autorest/date v0.3.0 // indirect
	github.com/Azure/go-autorest/logger v0.2.1 // indirect
	github.com/Azure/go-autorest/tracing v0.6.0 // indirect
	github.com/MakeNowJust/heredoc v1.0.0 // indirect
	github.com/PuerkitoBio/purell v1.1.1 // indirect
	github.com/PuerkitoBio/urlesc v0.0.0-20170810143723-de5bf2ad4578 // indirect
	github.com/beorn7/perks v1.0.1 // indirect
	github.com/cespare/xxhash/v2 v2.1.2 // indirect
	github.com/chai2010/gettext-go v1.0.2 // indirect
	github.com/cpuguy83/go-md2man/v2 v2.0.1 // indirect
	github.com/davecgh/go-spew v1.1.1 // indirect
	github.com/evanphx/json-patch v4.12.0+incompatible // indirect
	github.com/exponent-io/jsonpath v0.0.0-20151013193312-d6023ce2651d // indirect
	github.com/fsnotify/fsnotify v1.5.4 // indirect
	github.com/go-errors/errors v1.0.1 // indirect
	github.com/go-logr/zapr v1.2.3 // indirect
	github.com/go-openapi/jsonpointer v0.19.5 // indirect
	github.com/go-openapi/jsonreference v0.19.5 // indirect
	github.com/go-openapi/swag v0.19.14 // indirect
	github.com/gogo/protobuf v1.3.2 // indirect
	github.com/golang-jwt/jwt/v4 v4.2.0 // indirect
	github.com/golang/groupcache v0.0.0-20210331224755-41bb18bfe9da // indirect
	github.com/golang/protobuf v1.5.2 // indirect
	github.com/google/btree v1.0.1 // indirect
	github.com/google/gnostic v0.5.7-v3refs // indirect
	github.com/google/go-cmp v0.5.9 // indirect
	github.com/google/gofuzz v1.1.0 // indirect
	github.com/google/shlex v0.0.0-20191202100458-e7afc7fbc510 // indirect
	github.com/google/uuid v1.1.2 // indirect
	github.com/gregjones/httpcache v0.0.0-20180305231024-9cad4c3443a7 // indirect
	github.com/imdario/mergo v0.3.12 // indirect
	github.com/inconshreveable/mousetrap v1.0.0 // indirect
	github.com/josharian/intern v1.0.0 // indirect
	github.com/json-iterator/go v1.1.12 // indirect
	github.com/liggitt/tabwriter v0.0.0-20181228230101-89fcab3d43de // indirect
	github.com/mailru/easyjson v0.7.6 // indirect
	github.com/matttproud/golang_protobuf_extensions v1.0.2-0.20181231171920-c182affec369 // indirect
	github.com/mitchellh/go-wordwrap v1.0.0 // indirect
	github.com/moby/spdystream v0.2.0 // indirect
	github.com/moby/term v0.0.0-20210619224110-3f7ff695adc6 // indirect
	github.com/modern-go/concurrent v0.0.0-20180306012644-bacd9c7ef1dd // indirect
	github.com/modern-go/reflect2 v1.0.2 // indirect
	github.com/monochromegane/go-gitignore v0.0.0-20200626010858-205db1a8cc00 // indirect
	github.com/munnerz/goautoneg v0.0.0-20191010083416-a7dc8b61c822 // indirect
	github.com/peterbourgon/diskv v2.0.1+incompatible // indirect
	github.com/pkg/errors v0.9.1 // indirect
	github.com/pmezard/go-difflib v1.0.0 // indirect
	github.com/prometheus/client_model v0.2.0 // indirect
	github.com/prometheus/common v0.37.0 // indirect
	github.com/prometheus/procfs v0.8.0 // indirect
	github.com/russross/blackfriday v1.5.2 // indirect
	github.com/russross/blackfriday/v2 v2.1.0 // indirect
	github.com/spf13/cobra v1.4.0 // indirect
	github.com/spf13/pflag v1.0.5 // indirect
	github.com/xlab/treeprint v1.1.0 // indirect
	go.starlark.net v0.0.0-20200306205701-8dd3e2ee1dd5 // indirect
	go.uber.org/atomic v1.7.0 // indirect
	go.uber.org/multierr v1.6.0 // indirect
	go.uber.org/zap v1.21.0
	golang.org/x/crypto v0.0.0-20220315160706-3147a52a75dd // indirect
	golang.org/x/net v0.1.0 // indirect
	golang.org/x/oauth2 v0.0.0-20220223155221-ee480838109b // indirect
	golang.org/x/sys v0.1.0 // indirect
	golang.org/x/term v0.1.0 // indirect
	golang.org/x/text v0.4.0 // indirect
	golang.org/x/time v0.0.0-20220609170525-579cf78fd858 // indirect
	gomodules.xyz/jsonpatch/v2 v2.2.0 // indirect
	google.golang.org/appengine v1.6.7 // indirect
	google.golang.org/protobuf v1.28.1 // indirect
	gopkg.in/inf.v0 v0.9.1 // indirect
	gopkg.in/yaml.v2 v2.4.0 // indirect
	gopkg.in/yaml.v3 v3.0.1 // indirect
	k8s.io/cli-runtime v0.25.3 // indirect
	k8s.io/component-base v0.25.3 // indirect
	k8s.io/klog/v2 v2.70.1 // indirect
	k8s.io/kube-openapi v0.0.0-20220803162953-67bda5d908f1 // indirect
	k8s.io/kubectl v0.25.3 // indirect
	k8s.io/utils v0.0.0-20220728103510-ee6ede2d64ed // indirect
	sigs.k8s.io/json v0.0.0-20220713155537-f223a00ba0e2 // indirect
	sigs.k8s.io/kustomize/api v0.12.1 // indirect
	sigs.k8s.io/kustomize/kyaml v0.13.9 // indirect
	sigs.k8s.io/structured-merge-diff/v4 v4.2.3 // indirect
	sigs.k8s.io/yaml v1.3.0 // indirect
)

require (
	github.com/emicklei/go-restful/v3 v3.8.0 // indirect
	github.com/evanphx/json-patch/v5 v5.6.0 // indirect
)

replace github.com/spf13/viper => github.com/spf13/viper v1.8.0
